%YAML 1.1
%TAG !u! tag:unity3d.com,2011:
--- !u!114 &11400000
MonoBehaviour:
  m_ObjectHideFlags: 0
  m_CorrespondingSourceObject: {fileID: 0}
  m_PrefabInstance: {fileID: 0}
  m_PrefabAsset: {fileID: 0}
  m_GameObject: {fileID: 0}
  m_Enabled: 1
  m_EditorHideFlags: 0
  m_Script: {fileID: 11500000, guid: 468a46d0ae32c3544b7d98094e6448a9, type: 3}
  m_Name: AddressableAssetSettings
  m_EditorClassIdentifier: 
  m_DefaultGroup: 1d587a629a8c14c4aba27aeb606a92f8
  m_OptimizeCatalogSize: 0
  m_BuildRemoteCatalog: 0
  m_BundleLocalCatalog: 0
  m_CatalogRequestsTimeout: 0
  m_DisableCatalogUpdateOnStart: 0
  m_IgnoreUnsupportedFilesInBuild: 0
  m_UniqueBundleIds: 0
  m_NonRecursiveBuilding: 0
  m_maxConcurrentWebRequests: 500
  m_ContiguousBundles: 0
  m_StripUnityVersionFromBundleBuild: 0
  m_DisableVisibleSubAssetRepresentations: 0
  m_ShaderBundleNaming: 0
  m_ShaderBundleCustomNaming: 
  m_MonoScriptBundleNaming: 0
  m_MonoScriptBundleCustomNaming: 
  m_RemoteCatalogBuildPath:
    m_Id: 
  m_RemoteCatalogLoadPath:
    m_Id: 
  m_ContentStateBuildPath: 
  m_overridePlayerVersion: 
  m_GroupAssets:
  - {fileID: 11400000, guid: 8bdaffff1f8da2d4eb0f09971e94cd5a, type: 2}
  - {fileID: 11400000, guid: 1baf5da929e38784d81aaeb37889aeac, type: 2}
  m_BuildSettings:
    m_CompileScriptsInVirtualMode: 0
    m_CleanupStreamingAssetsAfterBuilds: 1
    m_LogResourceManagerExceptions: 1
    m_BundleBuildPath: Temp/com.unity.addressables/AssetBundles
  m_ProfileSettings:
    m_Profiles:
    - m_InheritedParent: 
      m_Id: 88885f91773dc254c836bac24fffba09
      m_ProfileName: Default
      m_Values:
      - m_Id: f430f5841c52cfc4291d7999a18f62c8
        m_Value: '[UnityEditor.EditorUserBuildSettings.activeBuildTarget]'
      - m_Id: 9fa7727735280c34dbeb7c3c11afa81f
        m_Value: '[UnityEngine.AddressableAssets.Addressables.BuildPath]/[BuildTarget]'
      - m_Id: c5a46d23e04ddcd4bb51669f12e54cc4
        m_Value: '{UnityEngine.AddressableAssets.Addressables.RuntimePath}/[BuildTarget]'
      - m_Id: 3c0d19411e5023343b23d69a5fe2291a
        m_Value: ServerData/[BuildTarget]
      - m_Id: 08ed10ccf4858374bb0d3d122158ceee
        m_Value: http://localhost/[BuildTarget]
    m_ProfileEntryNames:
    - m_Id: f430f5841c52cfc4291d7999a18f62c8
      m_Name: BuildTarget
      m_InlineUsage: 0
    - m_Id: 9fa7727735280c34dbeb7c3c11afa81f
      m_Name: LocalBuildPath
      m_InlineUsage: 0
    - m_Id: c5a46d23e04ddcd4bb51669f12e54cc4
      m_Name: LocalLoadPath
      m_InlineUsage: 0
    - m_Id: 3c0d19411e5023343b23d69a5fe2291a
      m_Name: RemoteBuildPath
      m_InlineUsage: 0
    - m_Id: 08ed10ccf4858374bb0d3d122158ceee
      m_Name: RemoteLoadPath
      m_InlineUsage: 0
    m_ProfileVersion: 1
  m_LabelTable:
    m_LabelNames:
    - default
  m_SchemaTemplates: []
  m_GroupTemplateObjects:
  - {fileID: 11400000, guid: 62ae79d49d13fb7488481f8b70183023, type: 2}
  m_InitializationObjects: []
  m_CertificateHandlerType:
    m_AssemblyName: 
    m_ClassName: 
  m_ActivePlayerDataBuilderIndex: 3
  m_DataBuilders:
  - {fileID: 11400000, guid: b28cfbe59d33004439a242e828f2cbab, type: 2}
  - {fileID: 11400000, guid: 40dd5ca9b99b82f4da97c66cbdadda44, type: 2}
  - {fileID: 11400000, guid: 18be65d9f60c14e4498b94874374851c, type: 2}
  - {fileID: 11400000, guid: 98a3b84ccc3c7424e92717c489550233, type: 2}
  m_ActiveProfileId: 88885f91773dc254c836bac24fffba09
  m_HostingServicesManager:
    m_HostingServiceInfos: []
    m_Settings: {fileID: 11400000}
    m_NextInstanceId: 0
    m_RegisteredServiceTypeRefs: []
